2
Andy
Alice
10
Andy
Beck
Betry
Calvin
Claire
David
Don
Emma
Eason
Alice
0 10 0 2 0 5 0 0 0 0
10 0 0 2 3 0 0 0 0 0
0 0 0 0 20 1 0 0 0 2
2 2 0 0 0 0 0 2 0 0 
0 3 20 0 0 50 0 0 0 0
5 0 1 0 50 0 0 0 0 0
0 0 0 0 0 0 0 0 7 4
0 0 0 2 0 0 0 0 8 0
0 0 0 0 0 0 7 8 0 6
0 0 2 0 0 0 4 0 6 0